<?xml version="1.0" standalone="no"?>
<!DOCTYPE svg PUBLIC "-//W3C//DTD SVG 1.1//EN" "http://www.w3.org/Graphics/SVG/1.1/DTD/svg11.dtd" >
<svg xmlns="http://www.w3.org/2000/svg">
<metadata>Generated by IcoMoon</metadata>
<defs>
<font id="concita" horiz-adv-x="1024">
<font-face units-per-em="1024" ascent="960" descent="-64" />
<missing-glyph horiz-adv-x="1024" />
<glyph unicode="&#x20;" horiz-adv-x="512" d="" />
<glyph unicode="&#xe900;" glyph-name="arquitectura" d="M911.62 282.405h-158.134c-15.896 34.877-35.115 77.11-54.333 119.223-3.44 3.084-5.576 7.474-5.694 12.456-5.932 13.049-11.982 26.099-17.795 38.911h17.795v-38.911c1.898-4.152 3.796-8.304 5.694-12.456 3.084-3.084 7.355-4.864 12.1-4.864 9.846 0 17.795 7.948 17.795 17.795v38.436h20.642v-62.162c0-9.846 7.948-17.795 17.795-17.795s17.795 7.948 17.795 17.795v62.162h126.341v-170.59zM757.875 175.282c-1.661-0.712-3.322-1.068-4.982-1.068-4.508 0-8.779 2.491-10.795 6.881l-46.978 101.31-145.559 313.303c-10.439-5.576-22.421-8.779-34.996-8.779-12.812 0-24.912 3.203-35.47 9.016l-49.825-107.36-16.727-36.182-79.008-169.997-16.49-35.589-30.488-65.721c-2.017-4.389-6.287-6.881-10.795-6.881-1.661 0-3.44 0.356-4.982 1.068-5.932 2.728-8.541 9.846-5.813 15.778l42.351 91.345 152.559 328.487c-12.693 13.405-20.404 31.318-20.404 51.13 0 41.521 33.691 75.212 75.093 75.212s75.093-33.691 75.093-75.212c0-20.049-7.83-38.199-20.76-51.486l194.672-419.477c2.847-5.932 0.237-13.049-5.694-15.778v0zM459.876 488.584l30.132 65.603c7.83-1.898 16.134-2.847 24.556-2.847s16.727 0.949 24.556 2.847l30.132-65.603h-109.377zM365.090 282.405l47.927 104.395c1.779-7.948 8.897-13.761 17.32-13.761 9.728 0 17.795 7.948 17.795 17.795v62.162h20.523v-38.436c0-9.846 7.948-17.795 17.795-17.795s17.795 7.948 17.795 17.795v38.436h20.642v-38.436c0-9.846 7.948-17.795 17.795-17.795s17.795 7.948 17.795 17.795v38.436h20.642v-62.162c0-9.846 7.948-17.795 17.795-17.795 8.304 0 15.303 5.694 17.201 13.524l47.927-104.157h-298.948zM117.509 282.405v170.59h70.229v-38.436c0-9.846 7.948-17.795 17.795-17.795s17.795 7.948 17.795 17.795v38.436h20.523v-62.162c0-9.846 8.067-17.795 17.795-17.795 9.846 0 17.795 7.948 17.795 17.795v62.162h20.642v-38.436c0-9.846 7.948-17.795 17.795-17.795 5.22 0 9.965 2.254 13.168 5.932l4.389 9.728c0.237 0.712 0.237 1.424 0.237 2.135v38.436h18.269l-18.506-40.572c-0.356-3.796-1.898-7.118-4.389-9.728l-54.807-120.291h-158.727zM946.853 473.993c-1.424 8.304-8.66 14.592-17.439 14.592h-270.003c-29.302 64.179-51.841 113.529-51.841 113.529 11.151 17.32 17.676 37.843 17.676 59.908 0 55.044-40.216 100.836-92.888 109.377v47.927c0 9.846-7.948 17.795-17.795 17.795s-17.795-7.948-17.795-17.795v-47.927c-52.672-8.541-92.888-54.333-92.888-109.377 0-22.184 6.643-42.944 17.913-60.264l-51.604-113.173h-270.477c-9.846 0-17.795-7.948-17.795-17.795v-206.179c0-1.186 0.119-2.491 0.356-3.559s0.475-2.017 0.83-2.966c2.373-6.762 8.897-11.626 16.608-11.626 1.186 0 2.491 0.119 3.559 0.356h156.711l-22.184-48.638v-111.75c0-1.068 0.119-2.135 0.356-3.084 0.593-3.796 2.491-7.118 5.101-9.49 0.712-0.83 1.542-1.542 2.373-2.017 1.779-1.305 3.915-2.135 6.169-2.61 1.305-0.356 2.491-0.475 3.796-0.475 0.949 0 1.779 0.119 2.61 0.237 0.593 0 1.186 0.237 1.779 0.356 0.949 0.237 1.898 0.475 2.847 0.949 0.949 0.356 1.898 0.949 2.728 1.542 2.847 1.898 5.101 4.627 6.406 7.948l76.754 167.031h331.69l76.754-167.031c1.305-3.322 3.559-6.050 6.406-7.948 0.83-0.593 1.779-1.186 2.728-1.542 0.949-0.475 1.898-0.712 2.847-0.949 0.593-0.119 1.186-0.356 1.779-0.356 0.83-0.119 1.661-0.237 2.61-0.237 1.305 0 2.491 0.119 3.796 0.475 2.254 0.475 4.389 1.305 6.169 2.61 0.83 0.475 1.661 1.186 2.373 2.017 2.61 2.373 4.508 5.694 5.101 9.49 0.237 0.949 0.356 2.017 0.356 3.084v111.75c0 0.475-8.423 19.337-21.709 48.638h159.795c9.846 0 17.795 7.948 17.795 17.795v206.179c0 1.068-0.119 2.135-0.356 3.203v0zM877.938 372.827c0-15.908-12.895-28.803-28.803-28.803s-28.803 12.895-28.803 28.803c0 15.908 12.895 28.803 28.803 28.803s28.803-12.895 28.803-28.803zM543.9 662.527c0-15.908-12.895-28.803-28.803-28.803s-28.803 12.895-28.803 28.803c0 15.908 12.895 28.803 28.803 28.803s28.803-12.895 28.803-28.803z" />
<glyph unicode="&#xe901;" glyph-name="arte" d="M812.429 398.385c-17.692 17.003-18.266 45.264-1.264 62.956 17.232 17.692 45.379 18.152 63.186 1.149 17.577-17.003 18.152-45.264 1.034-62.956s-45.264-18.152-62.956-1.149zM791.635 257.308c-17.118-17.692-45.264-18.266-63.071-1.034-17.577 17.003-18.152 45.149-1.034 62.956 17.118 17.577 45.149 18.152 62.956 1.034s18.266-45.264 1.149-62.956zM688.929 641.937c-17.577 17.003-18.266 45.149-1.034 62.956 17.003 17.807 45.264 18.152 62.956 1.149 17.692-17.118 18.152-45.264 1.149-63.071-17.232-17.577-45.264-18.152-63.071-1.034zM794.048 602.418c17.003 17.807 45.264 18.266 62.956 1.149 17.692-17.003 18.152-45.264 1.149-62.841-17.003-17.807-45.264-18.266-62.956-1.264-17.692 17.118-18.152 45.379-1.149 62.956zM615.519 695.818c-17.118-17.692-45.379-18.381-63.071-1.149-17.692 17.003-18.152 45.264-1.034 62.956 17.003 17.692 45.149 18.152 62.841 1.149 17.807-17.118 18.266-45.264 1.264-62.956zM840.346 716.267c-134.528 129.818-349.13 125.912-478.948-8.731l-1.149-1.264c-52.157-54.684-44.345-150.152 31.363-148.889l74.329 1.493c14.705 0.115 27.802-5.514 37.567-14.935 9.65-9.191 15.854-22.058 16.313-36.303 0.919-29.41-24.47-53.995-53.765-54.57l-37.567-0.804 35.039-28.721c5.17-4.251 26.193-24.011 30.099-32.167l44.69-89.264c0.804-1.608 1.493-3.217 1.953-4.94 6.319 1.149 12.867 1.723 19.415 1.723 48.711 0 90.873-31.133 105.233-77.431 4.021-12.752 8.846-24.24 14.36-33.891 1.149-2.068 31.133-33.776 35.844-35.154 51.123 17.232 98.57 46.987 137.745 88.69 125.912 134.873 120.972 346.488-12.522 475.157zM313.031 436.296l-29.525-29.755c-4.021-4.251-10.914-3.906-14.59 0.689l-123.729 152.68c-7.467 9.191 4.595 21.253 13.786 13.901l153.139-122.81c4.595-3.676 4.94-10.454 0.919-14.705v0zM373.23 429.518l-253.433 207.479c-4.825 4.021-10.914 5.974-17.003 5.974-6.893 0-14.016-2.757-19.415-8.042-9.765-9.765-10.684-25.504-1.838-36.418l217.015-265.266 86.507 86.507-11.833 9.765zM428.374 384.254l-94.319-94.204-20.794 25.389 89.724 89.724zM495.474 272.461l-2.964-2.964c-6.95-3.699-13.614-8.432-19.691-13.763l-4.147-3.849-0.885-0.896c-7.548-7.548-13.924-15.992-18.956-25.022l-2.964-2.964-89.276 44.575 94.17 94.308 44.713-89.425zM522.578 105.088c-20.909 13.901-38.371 33.776-41.473 62.152l0.345 0.115c-0.574 6.089-0.115 11.948 1.493 17.577 3.332 13.326 12.178 24.815 24.24 31.593l19.99 4.021c-0.574-0.23-1.264-0.689-1.838-0.919-12.178-6.893-20.909-18.381-24.24-31.708-1.608-5.629-2.068-11.488-1.608-17.577h-0.345c3.217-28.491 20.679-48.366 41.473-62.267 17.003-11.144 36.073-18.381 51.468-22.977 3.906-3.791 7.353-6.893 9.995-8.616 0.689-0.46 1.264-0.804 1.723-1.034 0 0-45.609 5.974-81.222 29.64zM741.086 98.080c-18.611 0-65.139 12.063-95.123 24.7-6.319 2.642-11.718 5.17-16.084 7.697l28.491-4.595c-14.82 6.319-32.397 16.428-53.421 32.397l36.648-9.191c-1.493 2.298-2.757 4.595-4.251 7.008-6.204 11.144-11.029 22.517-14.59 32.972-1.034 2.527-1.723 5.055-2.413 7.467-9.076 29.295-33.086 48.711-59.969 54.455-5.629 1.379-11.259 1.953-17.118 1.953-11.029 0-22.287-2.413-32.857-7.467 0 0-0.115-0.115-0.23-0.115-6.204-2.987-12.178-7.008-17.692-11.833-1.149-1.034-2.527-2.183-3.676-3.446-6.663-6.663-11.948-14.131-16.084-22.172-10.799-21.139-12.522-45.953-4.595-68.126 3.102-9.42 7.927-18.381 14.475-26.538l-0.46-0.345c31.363-37.682 75.249-49.515 118.215-49.515 73.41 0 144.064 34.81 144.064 34.81-0.919-0.115-2.068-0.115-3.332-0.115z" />
<glyph unicode="&#xe902;" glyph-name="cine" d="M827.176 404.664h-82.674l34.779 106.416h82.674l-34.779-106.416zM851.407 95.229c0-12.368-10.134-22.502-22.502-22.502h-571.479c-12.445 0-22.502 10.134-22.502 22.502v268.214h616.482v-268.214zM309.608 511.080h82.752l-34.869-106.416h-82.674l34.792 106.416zM544.528 511.080h82.674l-34.792-106.416h-82.752l34.869 106.416zM182.163 496.982c-20.191 0-36.677 16.486-36.677 36.767 0 16.809 11.374 31.074 26.788 35.36 3.137 0.904 6.429 1.407 9.889 1.407 16.821 0 31.074-11.386 35.36-26.878 0.917-3.137 1.407-6.429 1.407-9.889 0-20.281-16.486-36.767-36.767-36.767v0zM270.040 692.424l79.705 22.334-4.867-111.851-79.628-22.334 4.79 111.851zM496.31 755.811l79.537 22.334-4.777-111.851-79.628-22.334 4.867 111.851zM722.322 819.198l79.628 22.347-4.777-111.863-79.628-22.334 4.777 111.851zM880.919 533.75h-645.503c0 4.944-0.658 9.811-1.975 14.343l620.523 174.011c12.949 3.628 20.449 16.976 16.821 29.835l-28.195 100.477c-3.46 12.368-16.241 19.545-28.518 16.073l-649.544-182.080c-12.858-3.628-20.359-16.976-16.731-29.835l20.023-71.559c-22.411-6.261-38.82-26.865-38.82-51.265 0-29.344 23.819-53.253 53.163-53.253v-404.89c0-28.853 23.496-52.259 52.259-52.259h617.476c28.776 0 52.181 23.405 52.181 52.259v434.983c0 12.768-10.302 23.16-23.16 23.16v0zM824.126 292.066c0-9.063-7.333-16.486-16.486-16.486h-527.792c-9.153 0-16.486 7.423-16.486 16.486 0 9.153 7.333 16.486 16.486 16.486h527.792c9.153 0 16.486-7.333 16.486-16.486zM736.338 214.006c0-9.153-7.333-16.486-16.486-16.486h-352.218c-9.153 0-16.486 7.333-16.486 16.486 0 9.063 7.333 16.486 16.486 16.486h352.218c9.153 0 16.486-7.423 16.486-16.486zM663.883 135.863c0-9.153-7.423-16.486-16.486-16.486h-207.306c-9.076 0-16.486 7.333-16.486 16.486 0 9.063 7.41 16.486 16.486 16.486h207.306c9.063 0 16.486-7.423 16.486-16.486z" />
<glyph unicode="&#xe903;" glyph-name="concita" horiz-adv-x="2826" d="M478.897 322.38c-29.362-30.167-60.643-45.25-93.843-45.25s-61.219 11.265-83.864 33.985c-22.645 22.529-34.16 50.214-34.16 82.672 0 32.649 11.514 59.188 34.543 79.808 22.837 20.62 49.896 30.93 81.177 30.93 31.089 0 62.178-13.174 92.884-39.904l44.139 53.842c-37.038 36.849-82.137 55.178-135.679 55.178s-98.833-16.802-136.063-50.787c-37.23-33.985-55.845-77.899-55.845-131.931 0-54.224 17.847-97.946 53.542-131.358 35.695-33.603 78.107-50.214 127.619-50.214 56.613 0 106.509 21.766 149.688 65.106l-44.139 47.923zM837.574 308.138c-21.11-21.575-47.977-32.267-80.601-32.267-32.432 0-59.3 10.692-80.41 32.267-21.302 21.575-31.857 49.259-31.857 83.435s10.555 62.052 31.857 83.435c21.11 21.575 47.977 32.267 80.41 32.267 32.624 0 59.492-10.692 80.601-32.267 21.11-21.384 31.665-49.259 31.665-83.435s-10.555-61.861-31.665-83.435zM890.733 521.023c-35.695 35.131-80.218 52.696-133.76 52.696-53.35 0-98.065-17.565-133.568-52.696-35.695-35.322-53.542-78.471-53.542-129.449s17.847-94.127 53.542-129.258c35.503-35.322 80.218-52.887 133.568-52.887 53.542 0 98.065 17.565 133.76 52.887 35.695 35.131 53.35 78.28 53.35 129.258s-17.656 94.127-53.35 129.449zM1319.456 537.173c-24.756 24.248-57.189 36.467-97.297 36.467-24.372 0-47.209-6.11-68.511-18.52-21.11-12.41-37.614-29.594-49.704-51.169v64.534h-74.844v-353.789h74.844v191.501c0 32.84 9.595 57.66 28.786 74.844 18.999 16.993 41.644 25.584 67.36 25.584 54.502 0 81.561-32.649 81.561-97.755v-194.174h74.844v216.703c0 46.205-12.282 81.335-37.038 105.774zM1724.19 322.38c-29.362-30.167-60.835-45.25-94.035-45.25s-61.027 11.265-83.864 33.985c-22.645 22.529-33.968 50.214-33.968 82.672 0 32.649 11.514 59.188 34.352 79.808 23.029 20.62 50.088 30.93 81.177 30.93 31.281 0 62.178-13.174 92.884-39.904l44.139 53.842c-36.846 36.849-82.137 55.178-135.679 55.178-53.35 0-98.833-16.802-136.063-50.787-37.038-33.985-55.653-77.899-55.653-131.931 0-54.224 17.847-97.946 53.35-131.358 35.695-33.603 78.299-50.214 127.619-50.214 56.613 0 106.509 21.766 149.88 65.106l-44.139 47.923zM1917.25 705.381c-9.212 9.355-20.534 13.938-33.392 13.938s-23.989-4.582-33.392-13.938c-9.404-9.355-14.009-20.429-14.009-33.221 0-12.983 4.606-24.057 14.009-33.221 9.404-9.355 20.534-13.938 33.392-13.938s24.18 4.582 33.392 13.938c9.404 9.165 14.009 20.238 14.009 33.221 0 12.792-4.606 23.866-14.009 33.221v0zM1845.86 214.696h74.844v353.789h-74.844v-353.789zM2214.708 508.534v59.951h-93.651v110.929h-74.844v-110.929h-44.715v-59.951h44.715v-177.563c0-37.231 11.323-66.825 33.776-88.781s49.704-32.84 81.561-32.84v65.297c-11.131 1.718-20.15 6.492-27.059 14.129-8.828 9.928-13.434 23.293-13.434 40.286v179.472h93.651zM2463.96 346.245c0-22.529-9.020-40.477-26.867-53.842-17.656-13.174-38.574-19.856-62.37-19.856s-42.412 4.391-55.845 13.556c-13.434 9.165-20.15 22.339-20.15 39.522 0 33.794 27.059 50.596 80.985 50.596h84.248v-29.976zM2499.079 542.137c-26.675 21.002-60.835 31.503-102.671 31.503-54.886 0-103.822-16.993-147.002-51.169l33.392-46.586c35.695 24.057 69.855 35.894 102.863 35.894 52.583 0 78.874-23.484 78.874-70.452v-13.174h-96.914c-44.139 0-79.066-8.783-104.974-25.966-25.716-17.374-38.765-43.341-38.765-78.090 0-34.94 12.282-62.624 36.463-83.435 24.372-21.002 54.886-31.312 91.924-31.312 49.512 0 88.854 17.565 118.407 52.505v-47.159h68.127v227.968c0 45.25-13.242 78.471-39.725 99.473v0zM795.93 353.197h-38.957c-10.555 0-19.191 8.592-19.191 19.093v68.734c0 10.501 8.636 19.093 19.191 19.093s19.191-8.592 19.191-19.093v-49.641h19.767c10.747 0 19.191-8.592 19.191-19.093s-8.444-19.093-19.191-19.093z" />
<glyph unicode="&#xe904;" glyph-name="deportes" d="M484.32 783.766c-2.064 2.989-4.84 5.694-8.328 8-13.324 9.225-27.318 17.51-41.767 24.699 24.841 5.196 50.565 7.929 76.915 7.929 42.194 0 82.78-6.99 120.66-19.873-0.1-0.427-0.214-0.868-0.313-1.31-0.683-2.833-1.039-5.509-1.153-8.057-1.765 0.327-3.602 0.527-5.481 0.612-4.997 0.128-9.723 0.185-14.463 0.185-40.244 0-80.431-4.498-114.938-8.741-4.128-0.555-7.858-1.722-11.132-3.445v0zM798.726 405.499c-6.093 11.545-12.527 23.716-19.118 35.874-11.702 21.054-24.713 41.084-37.283 60.444l-9.509 14.677c-1.979 2.918-4.086 5.253-6.235 7.118 1.694 2.164 3.217 4.769 4.484 7.858l8.285 20.912c9.808 24.642 19.958 50.109 28.3 76.16 0.37 1.196 0.669 2.377 0.897 3.53 1.722-0.754 3.53-1.452 5.424-2.078 8.755-2.918 17.652-7.502 27.090-12.342l1.979-1.025c11.616-5.794 22.948-12.954 34.962-20.528l1.424-0.897c3.488-2.192 7.445-3.288 11.388-3.288 2.42 0 4.826 0.413 7.132 1.238 18.606-44.5 28.87-93.285 28.87-144.434v-0.527c-0.996 0.256-2.050 0.456-3.103 0.612-0.954 0.128-1.922 0.185-2.876 0.185-4.598 0-9.097-1.48-12.826-4.271-17.524-13.182-37.34-24.827-62.337-36.628-1.879-0.811-4.185-1.794-6.62-3.16-0.1 0.185-0.214 0.384-0.327 0.569v0zM445.684 370.921c-44.728 6.392-88.801 15.104-130.967 25.88-1.908 0.555-4.057 0.94-6.235 1.082 0.285 3.274 0.057 6.591-0.683 9.979l-1.196 6.207c-1.267 6.491-2.534 12.983-3.559 19.488-5.495 34.977-8.271 70.708-8.271 106.126 0 2.577-0.256 4.94-0.698 7.104 4.128 1.267 7.032 3.203 8.285 4.043 37.041 23.759 78.11 44.899 121.728 62.594 0.214 0.085 0.413 0.171 0.626 0.256 1.381-4.555 3.957-8.769 7.701-12.513 10.477-10.321 18.492-18.805 25.339-26.82 13.937-16.243 28.115-32.229 42.28-48.216 0 0 18.407-20.812 18.549-20.969-2.392-2.363-4.413-5.196-6.050-8.47-5.765-11.175-11.83-22.549-17.88-33.881l-10.221-19.218-8.997-17.168c-7.175-13.766-14.349-27.532-22.022-41.084-2.762-4.997-4.427-9.951-4.982-14.919-0.897 0.199-1.808 0.356-2.747 0.498v0zM312.511 130.127c-64.33 40.258-115.664 99.464-146.113 169.702 9.879-8.299 20.798-16.399 32.998-24.499 3.146-2.164 8.214-5.153 14.848-5.751-0.242-5.822 1.295-11.673 4.612-17.154 2.648-4.271 4.982-8.527 7.317-12.798 2.021-3.687 4.057-7.374 6.207-11.018 14.435-24.2 30.791-47.774 50.038-72.146 5.267-6.776 12.428-11.004 21.211-12.413 3.744-0.641 7.502-1.295 11.26-1.95-0.854-1.623-1.523-3.388-1.95-5.253-0.498-2.263-0.641-4.513-0.427-6.719v0zM540.578 74.48c4.399 5.125 6.121 12.029 4.641 18.606-1.48 6.591-5.993 12.086-12.157 14.819-5.239 2.335-10.492 4.399-15.73 6.434-4.954 1.922-9.879 3.815-14.691 6.007-1.523 0.698-2.947 1.452-4.37 2.207 0.754 0.883 1.495 1.836 2.207 2.833l15.944 21.666c10.264 13.979 20.542 27.959 30.806 41.81 1.851 2.406 3.231 5.011 4.143 7.701 2.392-0.669 5.011-1.053 7.872-1.053 2.434 0 4.883 0.299 7.317 0.897 44.087 1.452 84.787 5.523 124.376 12.47 1.566 0.299 3.858 0.712 6.52 1.552 0.199-0.996 0.441-1.993 0.74-2.989 5.139-17.752 8.413-32.528 10.307-46.451 1.936-13.894 8.869-19.645 14.862-21.994-52.857-36.315-115.407-59.462-182.941-64.686l0.157 0.171zM512.169 86.942c-35.817 0-70.978 4.883-105.514 15.132-25.339 7.402-49.682 17.367-72.886 30.037l10.677 0.569c27.475-4.84 54.949-9.68 82.424-14.52 15.090-2.705 30.322-5.694 45.554-8.114 7.972-1.281 14.378-5.979 21.353-9.111 9.965-4.555 20.357-7.972 30.606-12.527-1.082-1.267-2.463-1.495-3.872-1.495-0.797 0-1.609 0.071-2.392 0.071-1.979-0.028-3.972-0.043-5.95-0.043zM478.843 134.403c-0.399 0-0.826 0.085-1.295 0.27-17.794 3.132-34.877 6.264-51.96 9.395-39.432 6.975-79.007 14.236-118.582 21.069-3.559 0.569-5.837 1.993-7.83 4.555-17.652 22.35-33.881 45.411-48.401 69.754-4.698 7.972-8.826 16.229-13.666 24.058-2.42 3.986-1.708 7.26 0.427 10.392 22.35 32.315 42.28 66.053 63.775 98.937 1.666 2.591 3.089 3.744 5.281 3.744 0.826 0 1.751-0.157 2.833-0.47 43.988-11.246 88.403-19.93 133.245-26.336 3.986-0.569 6.691-1.993 8.826-5.837 22.634-39.29 45.411-78.58 68.188-117.87 3.559-6.121 6.975-12.1 10.534-18.079 1.424-2.278 1.708-3.986-0.142-6.406-15.517-20.926-31.033-42.137-46.55-63.206-1.31-1.779-2.619-3.972-4.683-3.972zM731.68 158.76c-1.139 0-1.537 1.594-2.021 5.096-2.278 16.798-6.264 33.311-10.961 49.54-0.996 3.417-0.854 6.121 0.996 9.538 22.065 40.998 43.845 81.997 65.768 122.995 6.406 11.958 12.954 23.773 19.218 35.731 2.278 4.271 6.406 5.41 10.107 7.118 23.204 10.961 45.411 23.346 66.053 38.863 3.132-0.427 1.566-2.562 1.566-4.128-2.705-36.728-11.958-71.605-25.624-105.628-10.107-24.77-22.634-48.258-38.009-70.181s-32.315-42.707-52.387-60.786c-9.965-8.968-20.214-17.367-30.606-25.624-2.007-1.637-3.26-2.534-4.1-2.534zM559.231 216.87c-5.182 0-8.242 4.925-11.502 10.62-24.77 43.276-49.824 86.41-75.021 129.543-3.559 6.121-4.413 11.104-0.712 17.794 10.961 19.36 20.926 39.148 31.318 58.793 9.395 17.794 19.076 35.589 28.329 53.526 1.708 3.417 3.844 4.84 7.687 5.267 38.578 3.701 77.014 7.687 115.592 11.673 17.083 1.708 34.165 3.274 51.248 5.125 0.541 0.057 1.053 0.085 1.537 0.085 3.16 0 5.039-1.267 7.146-4.356 15.659-24.343 31.888-48.401 45.981-73.74 6.548-12.1 12.954-24.2 19.36-36.301 1.139-1.993 1.139-3.559-0.142-5.837-27.048-50.394-54.095-100.93-81-151.608-2.705-5.125-6.406-6.548-11.815-7.545-40.571-7.118-81.427-10.961-124.134-12.243-1.409-0.541-2.691-0.797-3.872-0.797zM216.625 290.838c-1.552 0-3.274 0.811-5.424 2.278-16.086 10.677-31.318 22.35-45.127 35.731-3.701 3.559-5.837 7.545-7.402 12.243-13.239 40.002-19.36 81-19.076 124.561 0.712 24.343 3.132 50.109 8.968 75.306 1.566 6.975 5.979 12.67 9.538 18.506 7.118 12.1 15.232 23.489 22.777 35.162 0.968 1.58 1.879 2.406 3.132 2.406 0.783 0 1.694-0.327 2.847-0.982 27.475-16.513 55.234-32.884 82.851-49.113 3.274-1.851 3.701-4.128 3.701-7.26 0-36.728 2.847-73.171 8.541-109.471 1.424-8.968 3.274-17.937 4.982-26.905 0.712-3.274 0.285-5.837-1.566-8.826-21.211-32.884-42.28-65.911-63.063-99.079-1.936-3.16-3.659-4.555-5.68-4.555zM538.205 517.282c-1.694 0-2.733 0.954-4 2.463-20.072 22.777-40.429 45.411-60.216 68.473-8.399 9.823-17.367 19.076-26.478 28.044-2.562 2.562-3.274 4.698-2.135 8.257 15.232 45.127 30.322 90.253 45.127 135.38 1.281 3.986 3.417 5.552 7.545 6.121 37.354 4.57 74.708 8.584 112.361 8.584 4.541 0 9.082-0.057 13.623-0.185 3.844-0.142 6.548-1.424 9.111-4.413 37.439-42.28 74.879-84.559 112.461-126.554 2.562-2.989 2.705-5.125 1.708-8.399-10.392-32.457-23.631-63.918-36.016-95.52-1.281-3.132-2.705-4.698-6.264-5.125-54.664-5.552-109.471-11.246-164.136-16.94-0.712 0-1.281-0.142-1.993-0.142-0.242-0.028-0.47-0.043-0.698-0.043zM850.803 613.272c-13.097 8.257-25.197 15.944-38.009 22.35-10.534 5.41-21.069 10.961-32.172 14.663-9.111 2.989-15.517 8.826-21.638 15.659-32.457 36.87-65.056 73.455-97.656 110.041-5.552 6.406-11.531 12.1-9.111 22.065 0.712 3.132 0.982 4.897 2.975 4.897 0.811 0.014 1.908-0.285 3.431-0.911 29.183-12.243 56.088-28.329 81.143-47.689 40.429-31.033 72.886-69.042 97.798-113.457 4.84-8.541 9.538-17.225 13.239-27.617zM286.322 566.978c-0.996 0-2.036 0.313-3.231 1.025-26.905 16.086-53.81 32.030-80.715 47.974-2.135 1.281-5.125 1.851-4.271 5.125 0.996 8.257 4.84 15.090 7.545 22.492 7.402 20.072 15.801 39.717 25.909 58.508 4.128 7.972 10.25 14.093 16.229 20.072 29.325 29.183 62.352 53.241 99.506 71.462 12.1 5.979 24.485 11.246 37.297 15.801 2.249 0.826 4.242 1.21 6.221 1.21 2.15 0 4.285-0.456 6.733-1.352 23.773-9.111 45.838-20.926 66.622-35.304 2.989-1.993 3.701-3.417 2.42-6.975-13.808-41.141-27.332-82.281-40.856-123.422-1.708-5.125-4.271-8.257-9.68-10.392-43.845-17.794-85.84-39.148-125.557-64.629-1.48-0.996-2.79-1.594-4.171-1.594zM511.144 845.739c-219.227 0-396.887-177.659-396.887-397.029 0-219.227 177.659-396.887 396.887-396.887 219.37 0 397.029 177.659 397.029 396.887 0 219.37-177.659 397.029-397.029 397.029zM681.942 185.737c2.477-10.036 4.242-19.076 5.424-27.774 0.754-5.438 2.036-10.178 3.687-14.292-37.81-22.364-80.132-37.909-125.23-44.927-3.175 12.741-12.057 23.346-24.087 28.699-3.374 1.495-6.748 2.89-10.121 4.228l1.822 2.491c9.979 13.581 19.944 27.147 29.567 40.144 2.078 0.142 4.157 0.427 6.221 0.826 39.561 1.367 76.544 4.84 112.717 10.605zM416.364 587.051c0.399-0.413 0.783-0.826 1.196-1.224 9.865-9.723 17.481-17.78 24.015-25.41 14.050-16.371 28.485-32.656 42.45-48.401 2.605-2.947 5.224-5.894 7.83-8.84-5.239-10.093-10.62-20.143-15.972-30.179-3.459-6.491-6.918-12.954-10.321-19.403-3.061-5.794-6.093-11.602-9.111-17.396-7.303-14.008-14.207-27.247-21.823-40.699-0.228-0.413-0.456-0.826-0.669-1.253-36.044 5.595-71.562 12.698-105.87 21.211l-0.527 2.733c-1.224 6.235-2.434 12.47-3.417 18.634-5.054 32.172-7.73 64.928-8 97.456 31.105 19.759 64.814 37.496 100.218 52.771zM781.747 603.507c3.103-1.523 6.292-3.175 9.552-4.854l2.392-1.224c10.506-5.253 20.955-11.844 33.055-19.474l1.281-0.811c4.869-3.061 10.193-5.054 15.631-5.979 12.057-32.642 19.446-67.533 21.325-103.862-3.459-1.395-6.762-3.231-9.794-5.523-13.595-10.221-28.784-19.488-46.92-28.67-3.303 6.221-6.662 12.485-10.107 18.848-11.944 21.481-25.154 41.81-37.909 61.455-2.776 4.271-5.552 8.541-8.299 12.812 2.392 6.093 4.826 12.186 7.246 18.293 7.602 19.061 15.389 38.635 22.549 58.992z" />
<glyph unicode="&#xe905;" glyph-name="diseño" d="M469.352 781.853v65.402h65.79v-65.402h-65.79zM134.717 803.438c-6.204 0-11.116 5.041-11.116 11.116s4.912 11.116 11.116 11.116c1.68 0 3.231-0.388 4.653-1.163 0.517-0.259 0.905-0.517 1.422-0.776 0.517-0.388 1.163-0.905 1.551-1.422 2.068-2.068 3.361-4.782 3.361-7.755 0-6.075-5.041-11.116-10.986-11.116v0zM869.649 825.541c6.204 0 11.245-4.912 11.245-10.986s-5.041-11.116-11.245-11.116c-5.946 0-10.986 5.041-10.986 11.116s5.041 10.986 10.986 10.986v0zM909.846 596.892h-52.994c-17.449 41.619-51.055 86.729-95.13 125.375-27.66 24.17-74.062 58.552-134.94 80.912h208.226c4.782-14.476 18.483-25.204 34.64-25.204 20.293 0 36.708 16.415 36.708 36.579s-16.415 36.579-36.708 36.579c-16.157 0-29.857-10.599-34.64-25.334h-274.533v39.551c0 3.878-3.231 7.109-7.109 7.109h-102.368c-3.878 0-7.109-3.231-7.109-7.109v-39.551h-274.533c-4.653 14.735-18.612 25.334-34.64 25.334-20.293 0-36.708-16.415-36.708-36.579s16.415-36.579 36.708-36.579c16.027 0 29.857 10.728 34.64 25.204h208.356c-61.007-22.361-107.538-56.742-135.069-80.912-43.946-38.647-77.681-83.756-95.001-125.375h-53.123c-3.878 0-6.98-3.102-6.98-6.98v-101.593c0-3.878 3.102-7.109 6.98-7.109h102.368c3.878 0 6.98 3.231 6.98 7.109v101.593c0 3.878-3.102 6.98-6.98 6.98h-24.558c37.613 79.491 140.239 177.723 271.56 201.118v-34.252c0-3.878 3.231-6.98 7.109-6.98h102.368c3.878 0 7.109 3.102 7.109 6.98v34.252c131.321-23.395 233.948-121.627 271.431-201.118h-24.429c-3.878 0-6.98-3.102-6.98-6.98v-101.593c0-3.878 3.102-7.109 6.98-7.109h102.368c3.878 0 7.109 3.231 7.109 7.109v101.593c0 3.878-3.231 6.98-7.109 6.98v0zM459.943 434.416c0.388 0.776 0.918 1.59 1.551 2.314l62.739-62.739-0.969-0.194-24.584-4.304-0.052-0.039-18.638-3.283c-0.827-0.155-1.642-0.194-2.417-0.103-0.672 0-1.305 0.142-1.926 0.297 0 0-0.052 0.039-0.155 0.039-0.233 0.052-0.478 0.194-0.672 0.297-0.388 0.090-0.776 0.284-1.112 0.53-0.246 0.052-0.478 0.194-0.62 0.336-0.103 0-0.194 0.090-0.246 0.142-0.491 0.297-0.918 0.633-1.305 1.021l-0.103 0.090c-0.427 0.439-0.763 0.866-1.060 1.357-0.284 0.284-0.478 0.672-0.62 1.008-0.491 0.879-0.827 1.797-1.021 2.856l-9.603 54.428c-0.052 0.53-0.155 1.021-0.103 1.551-0.090 1.551 0.284 2.999 0.918 4.395zM193.172 169.48l182.337 391.106c0.103-0.685 0.142-1.409 0.246-2.184 0.090-0.569 0.246-1.202 0.284-1.835 0.246-1.305 0.439-2.65 0.685-3.955l4.821-27.634-169.774-364.144c-4.356-9.267-0.336-20.435 9.035-24.778l121.963-56.845c9.319-4.395 20.474-0.297 24.726 8.983l66.074 141.713 6.23-35.208-53.705-115.151c-9.138-19.569-32.365-28.113-51.973-18.936l-122.015 56.897c-19.608 9.086-28.061 32.417-18.936 51.973zM403.962 397.852l-41.348 19.323c-4.925 2.314-7.006 7.962-4.731 12.848l23.382 50.137c1.396 3.037 4.201 4.976 7.238 5.506l15.459-87.814zM412.705 252.124l-104.385 48.638c-4.925 2.327-6.954 8.027-4.679 12.899l23.33 50.086c2.223 4.834 8.014 6.954 12.899 4.692l75.497-35.221 12.55-71.386-2.314-5.015c-2.327-4.937-8.027-6.967-12.899-4.692zM495.591 314.338l75.057 13.235 52.076-52.076 0.814-4.588c0.155-0.814 0.194-1.642 0.103-2.404 0-0.776-0.194-1.551-0.439-2.275-0.052-0.336-0.142-0.633-0.388-0.866 0.052-0.142 0-0.297-0.142-0.246v-0.090c0-0.194-0.090-0.388-0.246-0.543-0.090-0.194-0.194-0.375-0.336-0.53-0.142-0.336-0.388-0.672-0.724-0.918-0.427-0.62-0.969-1.060-1.538-1.538-0.491-0.388-1.021-0.724-1.642-0.969-0.155-0.142-0.388-0.194-0.582-0.284-0.582-0.194-1.215-0.439-1.887-0.543l-113.458-20.034c-3.244-0.53-6.333 0.53-8.453 2.65l-0.052 0.052c-0.724 0.724-1.357 1.538-1.784 2.456-0.439 0.827-0.776 1.745-0.918 2.766l-7.303 41.387-2.314 13.042c-0.090 0.478-0.142 1.021-0.142 1.499s0.052 1.008 0.090 1.448c0.103 1.060 0.439 2.081 0.879 2.999 1.305 2.65 3.865 4.731 6.993 5.261l6.333 1.112zM518.196 114.271c-0.052-0.052-0.090 0-0.090 0.090-0.297 0.103-0.582 0.297-0.776 0.491-0.439 0.246-0.827 0.53-1.215 0.918-0.039 0.052-0.039 0.052-0.090 0.090-0.388 0.388-0.776 0.879-1.060 1.357-0.297 0.284-0.491 0.672-0.633 1.008-0.478 0.879-0.827 1.797-1.008 2.856l-9.616 54.441c-0.103 0.478-0.142 1.008-0.103 1.538-0.090 1.551 0.297 2.999 0.918 4.395 1.305 2.663 3.865 4.731 7.057 5.312l113.419 19.995c0.763 0.103 1.538 0.194 2.314 0.103 0.090 0 0.284 0 0.439-0.052 0.672 0 1.344-0.194 1.926-0.388 0.776-0.194 1.499-0.53 2.12-0.969 0.633-0.336 1.163-0.763 1.693-1.293 0.052-0.052 0.052-0.052 0.103-0.103 1.344-1.357 2.262-3.141 2.65-5.17l9.616-54.428c0.142-0.724 0.142-1.409 0.090-2.133 0.052-0.142 0.052-0.336-0.039-0.53 0-0.672-0.103-1.254-0.349-1.784-0.181-0.491-0.336-0.918-0.569-1.357l0.039-0.052c-0.090-0.375-0.388-0.763-0.62-1.099 0.052-0.052-0.052-0.155-0.052-0.155-0.336-0.53-0.724-1.008-1.163-1.448-0.569-0.582-1.202-1.112-2.029-1.538-0.142-0.052-0.233-0.155-0.427-0.246-0.827-0.439-1.745-0.776-2.753-0.918l-113.419-19.995c-0.814-0.142-1.642-0.194-2.417-0.103-0.763 0-1.538 0.194-2.262 0.439-0.633 0.142-1.163 0.388-1.693 0.724zM285.574 252.029l104.385-48.638c4.873-2.275 6.902-8.065 4.679-12.899l-23.33-50.085c-2.262-4.886-8.065-7.006-12.938-4.731l-104.385 48.638c-4.873 2.262-6.902 8.065-4.64 12.938l23.33 50.086c2.275 4.886 8.027 6.967 12.899 4.692zM410.869 477.019l-2.275 12.706c0.969-1.060 2.029-2.133 3.050-3.141l22.219-22.219 29.948-169.735 6.178-35.157 33.477-189.782c1.784-10.095 11.4-16.906 21.585-15.123l132.549 23.382c4.679 0.814 8.647 3.335 11.348 6.812 0.918 1.112 1.693 2.365 2.314 3.761 1.551 3.283 2.171 7.109 1.448 11.012l-26.949 152.932 25.256-25.269 21.883-124.083c2.275-13.093-2.171-25.747-10.909-34.485-5.506-5.506-12.615-9.423-20.823-10.87l-132.536-23.382c-21.353-3.761-41.594 10.482-45.355 31.732l-28.358 160.997-6.23 35.208-5.597 31.977-0.052 0.052-4.976 28.345-11.348 64.588-15.846 89.74zM915.146 257.734l-95.13-95.259c-7.238-7.238-19.129-7.238-26.368 0l-302.969 303.098 121.498 121.498 302.969-302.969c7.238-7.238 7.367-19.129 0-26.368zM466.25 569.492c-11.633 11.633-11.633 30.374 0 42.007 3.748 3.619 8.272 6.204 13.055 7.497 4.265 1.293 8.789 1.422 13.184 0.646 5.816-1.034 11.245-3.748 15.769-8.143 11.504-11.633 11.504-30.374 0-42.007-0.776-0.646-1.551-1.422-2.327-2.068-0.646-0.517-1.293-1.034-2.068-1.422-11.504-7.884-27.402-6.721-37.613 3.49zM929.622 298.578l-353.765 353.765c-0.905 1.034-2.068 1.939-2.973 2.844-0.388 0.259-0.776 0.646-1.163 0.905-1.034 0.905-1.939 1.81-2.844 2.585-0.517 0.388-1.034 0.776-1.551 1.163-0.776 0.646-1.551 1.163-2.327 1.68-0.905 0.776-1.81 1.422-2.714 2.068s-1.81 1.293-2.844 1.81c-0.646 0.517-1.293 0.905-2.068 1.293 0 0.129-0.129 0.259-0.259 0.259 0 0-0.129 0.129-0.259 0.129-1.163 0.776-2.197 1.422-3.361 2.068-0.646 0.388-1.293 0.646-1.939 1.034-1.81 1.034-3.748 1.939-5.558 2.844-3.748 1.68-7.626 3.231-11.504 4.395-0.259 0.129-0.517 0.259-0.776 0.259-1.81 0.646-3.748 1.163-5.558 1.68-1.422 0.388-2.973 0.776-4.395 0.905-1.163 0.388-2.327 0.646-3.49 0.776-1.551 0.259-3.102 0.517-4.653 0.776-1.68 0.259-3.361 0.388-4.912 0.517-1.034 0.129-1.939 0.129-2.973 0.259-3.878 0.259-7.755 0.259-11.633 0-2.197-0.129-4.395-0.259-6.592-0.517-2.068-0.259-4.136-0.517-6.204-0.905-0.776-0.129-1.551-0.259-2.197-0.388-1.422-0.259-2.844-0.646-4.265-0.905-0.776-0.129-1.551-0.388-2.197-0.517-1.422-0.388-2.714-0.776-4.007-1.163-13.313-4.007-26.109-10.728-37.225-20.034-1.034-0.776-2.068-1.68-3.102-2.585-1.422-1.293-2.844-2.585-4.136-4.007-1.551-1.422-2.973-2.973-4.265-4.524-1.422-1.551-2.844-3.102-4.136-4.782-1.034-1.422-2.197-2.973-3.231-4.395-0.388-0.517-0.776-1.034-1.034-1.68-1.034-1.422-1.939-2.714-2.844-4.265-1.163-1.68-2.197-3.619-3.102-5.429s-1.81-3.49-2.714-5.429c-0.259-0.259-0.259-0.517-0.517-0.905-0.776-1.68-1.422-3.361-2.068-5.041-0.776-1.81-1.422-3.619-1.939-5.558-0.129-0.259-0.259-0.388-0.259-0.776-0.646-1.939-1.163-3.748-1.68-5.687-0.388-1.163-0.646-2.327-0.776-3.49-0.517-2.068-0.905-4.265-1.293-6.333-0.517-3.102-0.905-6.333-1.034-9.565-0.129-1.68-0.259-3.361-0.259-5.041-0.129-2.585-0.129-5.041 0.129-7.497 0-2.327 0.259-4.524 0.517-6.721 0.129-2.197 0.517-4.395 0.905-6.592 0.129-0.646 0.129-1.293 0.388-1.939 0.517-3.231 1.422-6.463 2.327-9.694 4.912-16.544 13.83-32.055 26.885-45.109l352.99-353.119c15.252-15.252 40.068-15.252 55.32 0l95.13 95.13c15.381 15.381 15.381 40.198 0 55.449zM772.258 210.29l-39.073 39.073c-3.774 3.774-3.813 9.901 0 13.727l81.429 81.429c3.826 3.813 9.952 3.774 13.727 0l39.073-39.073c3.813-3.813 3.865-9.952 0.052-13.765l-81.442-81.442c-3.813-3.813-9.952-3.761-13.765 0.052zM681.45 301.098l-39.073 39.073c-3.774 3.774-3.813 9.901 0 13.727l81.429 81.429c3.826 3.813 9.952 3.774 13.727 0l39.073-39.073c3.813-3.813 3.813-9.901 0-13.714l-81.442-81.442c-3.813-3.813-9.901-3.813-13.714 0zM590.643 391.905l-39.073 39.073c-3.774 3.774-3.813 9.901 0 13.727l81.429 81.429c3.826 3.813 9.952 3.774 13.727 0l39.073-39.073c3.813-3.813 3.813-9.901 0-13.714l-81.442-81.442c-3.813-3.813-9.901-3.813-13.714 0z" />
<glyph unicode="&#xe906;" glyph-name="juridico" d="M890.148 144.772c-2.269-2.349-5.363-3.553-8.618-3.553h-361.386c-6.647 0-12.091 5.444-12.091 12.171 0 6.658 5.444 12.102 12.091 12.102h54.516c6.269 0 11.334 5.065 11.334 11.334 0 6.2-5.065 11.346-11.334 11.346-6.727 0-12.171 5.444-12.171 12.171 0 6.647 5.444 12.091 12.171 12.091h252.434c6.658 0 12.102-5.444 12.102-12.091 0-3.335-1.295-6.349-3.553-8.618-2.269-2.269-5.375-3.553-8.549-3.553h-80.29c-6.269 0-11.334-5.146-11.334-11.346 0-6.269 5.065-11.334 11.334-11.334h134.726c6.727 0 12.171-5.444 12.171-12.102 0-3.323-1.284-6.349-3.553-8.618zM881.53 188.172h-21.855c1.444 3.782 2.2 7.93 2.2 12.171 0 19.127-15.574 34.77-34.782 34.77h-252.434c-19.207 0-34.85-15.643-34.85-34.77 0-4.309 0.756-8.389 2.189-12.171h-21.855c-19.196 0-34.77-15.655-34.77-34.782 0-19.276 15.574-34.85 34.77-34.85h361.386c9.294 0 18.073 3.553 24.651 10.131 6.567 6.578 10.2 15.345 10.2 24.72 0 19.127-15.643 34.782-34.85 34.782zM694.248 540.641l-179.089-179.089c-4.779-4.779-12.434-4.779-17.213 0-4.71 4.699-4.71 12.446 0 17.144l179.089 179.157c4.779 4.71 12.434 4.71 17.213 0 4.779-4.779 4.779-12.515 0-17.213v0zM438.628 686.655c-4.401 4.401-4.401 11.609 0 16.079 4.469 4.401 11.678 4.401 16.159 0l142.221-142.221c4.401-4.469 4.401-11.678 0-16.079l-55.754-55.754c-4.481-4.469-11.678-4.469-16.159 0-4.401 4.401-4.401 11.609 0 16.079l47.709 47.709-134.176 134.187zM289.725 618.765l-15.93-15.93c-4.699-4.699-12.434-4.699-17.213 0-4.71 4.779-4.71 12.515 0 17.225l179.157 179.089c4.71 4.779 12.446 4.779 17.144 0 4.779-4.71 4.779-12.446 0-17.225l-163.159-163.159zM299.593 384.759l-17.225 17.293 103.99 104.001 17.225-17.225-103.99-104.070zM710.326 573.944c-13.58 13.569-35.721 13.569-49.382 0l-10.234-10.314-191.981 191.981 10.234 10.234c13.661 13.661 13.661 35.802 0 49.382-13.58 13.649-35.721 13.649-49.382 0l-179.089-179.089c-13.569-13.58-13.569-35.721 0-49.382 13.661-13.58 35.813-13.58 49.382 0l7.896 7.896 72.509-72.52-104.070-103.99-3.415 3.415c-4.469 4.469-11.678 4.469-16.079 0l-172.717-172.717c-19.941-19.952-19.941-52.419 0-72.44 19.952-19.952 52.419-19.952 72.371 0.069l172.717 172.717c4.469 4.401 4.469 11.609 0 16.079l-3.415 3.415 103.99 104.070 70.091-70.091-7.896-7.804c-13.649-13.661-13.649-35.802 0-49.462 13.58-13.58 35.733-13.58 49.382 0l179.089 179.169c13.661 13.58 13.661 35.721 0 49.382v0z" />
<glyph unicode="&#xe907;" glyph-name="mecanica" d="M899.732 602.224l-119.742-69.137c-24.712-14.282-56.632-5.728-70.892 18.984l-0.254 0.43c-14.26 24.734-5.717 56.621 19.006 70.903l119.72 69.137c-42.438 32.593-102.038 38.343-151.253 9.922-49.248-28.432-74.059-82.955-67.040-136.033-0.607-0.298-1.214-0.618-1.799-0.971l-86.84-50.131 38.1-21.986 21.776 12.56c2.196 1.258 4.614 1.865 6.987 1.865 4.856 0 9.591-2.505 12.196-7.009 3.863-6.689 1.556-15.331-5.143-19.194l-7.726-4.448 38.1-22.008 34.69 20.032c0.607 0.353 1.192 0.695 1.766 1.060 42.46-32.626 102.071-38.387 151.297-9.956 49.237 28.432 74.048 82.922 67.051 135.978v0zM239.843 227.977c-22.174-12.803-50.517-5.221-63.298 16.953-12.792 22.152-5.198 50.495 16.953 63.287 22.163 12.781 50.506 5.198 63.298-16.964 12.803-22.163 5.198-50.506-16.953-63.276v0zM443.964 383.071l-94.997-54.855c-6.7-3.863-15.331-1.545-19.194 5.143-3.863 6.7-1.556 15.32 5.132 19.205l80.935 46.72-38.078 21.997-118.517-68.419c-27.549 13.819-61.311 13.951-90.019-2.605-45.374-26.202-60.914-84.224-34.712-129.609 26.191-45.374 84.213-60.914 129.587-34.712 28.674 16.567 45.44 45.848 47.272 76.598l170.678 98.54-38.089 21.997zM846.142 244.927c-8.565-14.867-24.149-23.178-40.153-23.178-7.869 0-15.838 2.009-23.145 6.225-22.152 12.781-29.745 41.124-16.953 63.276 8.576 14.867 24.149 23.178 40.175 23.178 7.847 0 15.816-1.998 23.123-6.203 22.152-12.803 29.756-41.146 16.953-63.298zM853.471 350.254c-14.944 8.631-31.257 12.715-47.349 12.715-14.834 0-29.458-3.488-42.681-10.11l-214.010 123.561-38.089-21.986 176.451-101.873c6.677-3.874 8.984-12.505 5.121-19.205-2.594-4.481-7.34-7.009-12.207-7.009-2.384 0-4.779 0.607-6.975 1.865l-124.3 71.775-38.089-21.986 199.971-115.46c1.832-30.761 18.609-60.042 47.272-76.609 14.944-8.62 31.257-12.726 47.349-12.726 32.78 0 64.667 17.008 82.249 47.438 26.202 45.396 10.651 103.418-34.712 129.609zM483.241 438.196l28.101-16.225-38.078-21.986-130.194 75.163c-0.607 0.342-1.192 0.695-1.755 1.060-23.951-18.399-53.354-28.255-83.275-28.255-23.123 0-46.577 5.894-68.033 18.289-49.237 28.443-74.037 82.922-67.051 135.989l119.742-69.137c8.112-4.691 17.008-6.92 25.794-6.92 17.98 0 35.529 9.315 45.098 25.904l0.254 0.419c14.271 24.734 5.717 56.632-18.995 70.914l-119.731 69.137c23.917 18.377 53.298 28.211 83.198 28.211 23.123 0 46.577-5.894 68.055-18.289 49.248-28.432 74.059-82.955 67.051-136.033 0.596-0.298 1.203-0.629 1.788-0.971l116.133-67.051-38.078-21.986-51.080 29.469c-2.196 1.269-4.614 1.876-6.998 1.876-4.845 0-9.591-2.516-12.196-7.020-3.863-6.677-1.556-15.32 5.143-19.183l75.108-43.376z" />
<glyph unicode="&#xe908;" glyph-name="medicina" d="M657.483 351.219c-10.273-9.017-59.483-22.683-137.083-24.024v48.047c77.6-1.34 126.81-15.007 137.083-24.024v0zM520.4 263.607v36.172c38.842-2.147 60.007-13.75 61.619-17.688-1.613-4.734-22.777-16.337-61.619-18.484v0zM493.601 263.607c-38.758 2.147-59.923 13.666-61.619 17.688 1.697 4.639 22.861 16.337 61.619 18.484v-36.172zM356.518 351.219c10.357 8.933 59.567 22.683 137.083 24.024v-48.047c-77.517 1.34-126.726 15.091-137.083 24.024v0zM732.769 441.24c0 44.036-105.918 58.415-151.462 62.52-7.153 0.534-13.844-4.734-14.473-12.148-0.712-7.32 4.734-13.844 12.148-14.557 93.414-8.483 126.286-29.564 126.998-35.816-1.257-10.357-60.289-37.146-185.581-38.936v288.65c34.109 6.242 60.007 36.161 60.007 72.155 0 40.549-32.862 73.411-73.411 73.411-40.539 0-73.411-32.862-73.411-73.411 0-35.994 25.898-65.913 60.017-72.155v-288.65c-125.302 1.791-184.335 28.579-185.581 38.936 0.806 6.074 32.422 26.705 122.705 35.459 7.331 0.712 12.776 7.236 12.064 14.557-0.723 7.414-7.509 12.86-14.651 12.054-54.833-5.268-146.917-20.453-146.917-62.070 0-21.343 24.39-38.224 72.437-50.1 5.98-1.424 12.326-2.859 18.934-4.105-25.364-7.592-44.036-18.934-44.036-35.816 0-26.348 45.199-39.114 90.293-45.283-8.483-6.514-13.572-14.64-13.572-24.285 0-20.453 22.955-33.669 52.603-40.099-11.080-9.467-17.772-22.243-17.772-36.172 0-16.881 9.551-32.422 26.254-42.518 2.147-1.33 4.555-1.958 6.964-1.958 4.472 0 8.933 2.325 11.436 6.43 3.843 6.336 1.78 14.557-4.472 18.4-8.566 5.173-13.394 12.316-13.394 19.646 0 11.342 11.342 21.343 26.705 25.092v-156.552c0-7.414 5.98-13.405 13.394-13.405s13.405 5.99 13.405 13.405v156.552c15.447-3.749 26.788-13.75 26.788-25.092 0-7.142-4.734-14.201-12.954-19.384-6.252-3.843-8.21-12.148-4.283-18.4 3.927-6.336 12.232-8.21 18.484-4.283 16.169 10.179 25.542 25.458 25.542 42.068 0 13.928-6.692 26.705-17.772 36.172 29.658 6.43 52.603 19.646 52.603 40.099 0 9.645-5.090 17.772-13.666 24.285 45.105 6.168 90.293 18.934 90.293 45.283 0 16.881-18.662 28.223-44.026 35.816 6.608 1.246 12.954 2.587 19.018 4.105 47.963 11.876 72.343 28.757 72.343 50.1v0zM442.875 637.72v-67.871c0-21.259-17.321-38.58-38.58-38.58-6.786 0-13.572 1.875-19.562 5.351l-132.172 67.432c-15.897 9.373-22.955 26.788-18.306 43.764 4.639 16.965 19.552 28.401 37.146 28.401h132.894c21.343 0 38.58-17.238 38.58-38.496zM758.133 604.498l-133.69-68.228c-5.278-3.131-11.97-5.006-18.85-5.006-21.259 0-38.58 17.332-38.58 38.58v67.871c0 21.259 17.321 38.496 38.58 38.496h132.894c17.594 0 32.601-11.436 37.24-28.401s-2.503-34.381-17.594-43.314z" />
<glyph unicode="&#xe909;" glyph-name="tecnología" d="M891.683 230.159c0-7.347-6.002-13.349-13.349-13.349h-711.853c-7.347 0-13.349 6.002-13.349 13.349v45.739h250.013l16.35-30.113c2.691-4.967 7.968-8.072 13.66-8.072h178.507c5.692 0 10.866 3.104 13.66 8.072l16.35 30.113h250.013v-45.739zM183.969 676.891c0 7.554 6.105 13.66 13.66 13.66h649.557c7.554 0 13.66-6.105 13.66-13.66v-369.949h-228.592c-0.931 0-1.863-0.103-2.794-0.31-0.207 0-0.31 0-0.414-0.103-0.724-0.103-1.449-0.31-2.070-0.621-0.931-0.207-1.759-0.621-2.484-1.242-0.517-0.207-0.931-0.517-1.345-0.828-0.31-0.103-0.621-0.414-0.828-0.621-0.31-0.31-0.724-0.621-1.035-1.035-0.828-0.724-1.552-1.656-2.070-2.587-0.414-0.621-0.724-1.242-1.035-1.863l-15.729-28.975h-160.087l-15.729 28.975c-0.31 0.621-0.621 1.242-1.035 1.863-0.517 0.931-1.242 1.863-2.070 2.587-0.31 0.414-0.621 0.724-1.035 1.035-0.207 0.207-0.517 0.517-0.828 0.621-0.414 0.31-0.828 0.621-1.345 0.828-0.724 0.621-1.552 1.035-2.484 1.242-0.621 0.31-1.345 0.517-2.070 0.621-0.103 0.103-0.207 0.103-0.414 0.103-0.931 0.207-1.863 0.31-2.794 0.31h-228.592v369.949zM907.205 306.943h-15.315v369.949c0 24.629-20.076 44.704-44.704 44.704h-649.557c-24.629 0-44.704-20.076-44.704-44.704v-369.949h-15.315c-8.589 0-15.522-6.933-15.522-15.522v-61.261c0-24.422 19.869-44.394 44.394-44.394h711.853c24.422 0 44.394 19.972 44.394 44.394v61.261c0 8.589-6.933 15.522-15.522 15.522v0zM599.139 487.725l-57.847-57.846c-3.001-3.001-6.933-4.45-10.969-4.45-3.932 0-7.865 1.449-10.969 4.45-6.002 6.105-6.002 15.936 0 22.042l57.846 57.743c6.105 6.105 15.936 6.105 21.938 0 6.105-6.002 6.105-15.833 0-21.938zM453.022 439.502c-4.036 0-7.968 1.552-10.969 4.553-6.105 6.105-6.105 15.936 0 21.938l110.622 110.726c6.105 6.105 15.936 6.105 22.042 0 6.002-6.105 6.002-15.833 0-21.938l-110.726-110.726c-3.104-3.001-7.037-4.553-10.969-4.553zM798.446 649.778h-552.077c-8.589 0-15.522-6.933-15.522-15.522v-275.469c0-8.589 6.933-15.522 15.522-15.522h552.077c8.589 0 15.522 6.933 15.522 15.522v275.469c0 8.589-6.933 15.522-15.522 15.522z" />
<glyph unicode="&#xe90a;" glyph-name="video" d="M595.729 829.39l-465.121-465.121 14.225-14.234 22.45 22.45 28.14-28.14-22.45-22.44 20.757-20.766 22.45 22.45 187.167-187.167-22.44-22.45 20.815-20.805 22.44 22.44 28.14-28.14-22.45-22.44 14.225-14.234 465.13 465.121-14.225 14.234-27.927-27.927-28.14 28.14 27.927 27.927-20.815 20.815-27.927-27.927-187.167 187.157 27.927 27.937-20.766 20.757-27.927-27.927-28.14 28.14 27.937 27.927-14.234 14.225zM537.456 742.552l27.666 27.666 27.656-27.666-27.656-27.656-27.666 27.656zM493.292 698.397l27.724 27.724 27.656-27.675-27.714-27.704-27.666 27.656zM449.243 556.652l150.918 150.918 187.273-187.273-150.918-150.918-187.273 187.273zM449.195 654.29l27.656 27.666 27.666-27.666-27.666-27.666-27.656 27.666zM405.040 610.136l27.656 27.666 27.666-27.666-27.666-27.666-27.656 27.666zM360.876 565.981l27.666 27.666 27.656-27.666-27.656-27.666-27.666 27.666zM316.721 521.826l27.714 27.714 27.666-27.666-27.714-27.714-27.666 27.666zM794.76 485.248l27.656 27.666 27.666-27.666-27.666-27.666-27.656 27.666zM272.614 477.72l27.656 27.656 27.675-27.656-27.675-27.666-27.656 27.666zM247 354.419l150.918 150.908 187.273-187.273-150.908-150.918-187.283 187.283zM750.605 441.093l27.704 27.714 27.675-27.656-27.724-27.724-27.656 27.666zM228.459 433.555l27.656 27.666 27.675-27.666-27.675-27.656-27.656 27.656zM706.489 396.987l27.666 27.666 27.666-27.666-27.666-27.656-27.666 27.656zM184.295 389.4l27.675 27.666 27.656-27.666-27.656-27.656-27.675 27.656zM662.334 352.832l27.675 27.666 27.656-27.666-27.656-27.656-27.675 27.656zM618.179 308.677l27.666 27.656 27.666-27.656-27.666-27.666-27.666 27.666zM574.024 264.522l27.714 27.714 27.666-27.666-27.714-27.714-27.666 27.666zM529.918 220.406l27.666 27.675 27.656-27.675-27.656-27.656-27.666 27.656zM485.763 176.251l27.666 27.675 27.656-27.675-27.656-27.656-27.666 27.656zM441.608 132.097l27.656 27.666 27.666-27.666-27.666-27.666-27.656 27.666zM742.806 523.479l-68.405-68.443-16.489 153.337zM536.042 316.716l-68.405-68.443-16.489 153.337z" />
</font></defs></svg>